{
    "$schema": "http://json-schema.org/draft-04/schema",
    "type": "object",
    "required":["CsIP", "CsPort"],
    "properties": {
        "CsIP": { "type": "string" },
        "CsPort": { "type": "integer" },
        "movePenalty": {"type": "integer" },
        "informationExchangePenalty": {"type": "integer" },
        "discoveryPenalty": {"type": "integer" },
        "putPenalty": {"type": "integer" },
        "checkForShamPenalty": {"type": "integer" },
        "boardX": { "type": "integer" },
        "boardY": { "type": "integer" },
        "goalAreaHight": { "type": "integer" },
        "teamSize": { "type": "integer" },
        "numberOfGoals": { "type": "integer" },
        "numberOfPieces": { "type": "integer" },
        "shamPieceProbability": { "type": "number" }
    }
}
